﻿# Wavefront OBJ file automatically generated by Tiled2Unity

# Vertices (Count = 4)
v -256 -320 0
v -320 -320 0
v -320 -256 0
v -256 -256 0

# Texture cooridinates (Count = 4)
vt 0.5001221 0.8751221
vt 0.6248779 0.8751221
vt 0.6248779 0.9998779
vt 0.5001221 0.9998779

# Normal
vn 0 0 -1

# Groups (Count = 1)

g mesh_0001
f 1/1/1 2/2/1 3/3/1 4/4/1

